<?xml version="1.0" encoding="UTF-8" standalone="no"?>
<svg
   xmlns:dc="http://purl.org/dc/elements/1.1/"
   xmlns:cc="http://creativecommons.org/ns#"
   xmlns:rdf="http://www.w3.org/1999/02/22-rdf-syntax-ns#"
   xmlns:svg="http://www.w3.org/2000/svg"
   xmlns="http://www.w3.org/2000/svg"
   xmlns:sodipodi="http://sodipodi.sourceforge.net/DTD/sodipodi-0.dtd"
   xmlns:inkscape="http://www.inkscape.org/namespaces/inkscape"
   inkscape:version="1.0 (4035a4fb49, 2020-05-01)"
   sodipodi:docname="add_layer.svg"
   id="svg10"
   version="1.1"
   fill="#000"
   width="24px"
   viewBox="0 0 24 24"
   height="24px"
   enable-background="new 0 0 24 24">
  <metadata
     id="metadata16">
    <rdf:RDF>
      <cc:Work
         rdf:about="">
        <dc:format>image/svg+xml</dc:format>
        <dc:type
           rdf:resource="http://purl.org/dc/dcmitype/StillImage" />
        <dc:title></dc:title>
      </cc:Work>
    </rdf:RDF>
  </metadata>
  <defs
     id="defs14" />
  <sodipodi:namedview
     inkscape:current-layer="g8"
     inkscape:window-maximized="1"
     inkscape:window-y="-8"
     inkscape:window-x="-8"
     inkscape:cy="5.2235294"
     inkscape:cx="12"
     inkscape:zoom="17.708333"
     inkscape:pagecheckerboard="true"
     showgrid="false"
     id="namedview12"
     inkscape:window-height="1017"
     inkscape:window-width="1920"
     inkscape:pageshadow="2"
     inkscape:pageopacity="0"
     guidetolerance="10"
     gridtolerance="10"
     objecttolerance="10"
     borderopacity="1"
     bordercolor="#666666"
     pagecolor="#ffffff" />
  <g
     id="g4">
    <rect
       id="rect2"
       width="24"
       height="24"
       fill="none" />
  </g>
  <g
     style="stroke-width:8.4;stroke-miterlimit:4;stroke-dasharray:none"
     transform="translate(0.16941176,2.2023529)"
     id="g8">
    <path
       sodipodi:nodetypes="ccccccccccccc"
       d="m 20.938823,15.882352 v 2 h -2 v 2 h -2 v -2 h -2 v -2 h 2 v -2 h 2 v 2 z"
       id="path6-0" />
  </g>
  <path
     style="stroke-width:0.936916"
     d="M 10.806485,16.675235 3.5502816,11.566491 1.9552946,12.68988 10.81633,18.930928 19.677365,12.68988 18.072534,11.557575 Z m 0.0098,-2.264609 L 18.062685,9.3018818 19.677363,8.1695781 10.81633,1.9285294 1.9552946,8.1695781 3.5601269,9.3018818 Z"
     id="path4" />
</svg>
