<?xml version="1.0" encoding="UTF-8" standalone="no"?>
<svg
        xmlns:dc="http://purl.org/dc/elements/1.1/"
        xmlns:cc="http://creativecommons.org/ns#"
        xmlns:rdf="http://www.w3.org/1999/02/22-rdf-syntax-ns#"
        xmlns="http://www.w3.org/2000/svg"
        xmlns:sodipodi="http://sodipodi.sourceforge.net/DTD/sodipodi-0.dtd"
        xmlns:inkscape="http://www.inkscape.org/namespaces/inkscape"
        height="24"
        viewBox="0 0 24 24"
        width="24"
        version="1.1"
        id="svg10"
        sodipodi:docname="close.svg"
        inkscape:version="0.92.5 (2060ec1f9f, 2020-04-08)">
    <metadata
            id="metadata16">
        <rdf:RDF>
            <cc:Work
                    rdf:about="">
                <dc:format>image/svg+xml</dc:format>
                <dc:type
                        rdf:resource="http://purl.org/dc/dcmitype/StillImage"/>
                <dc:title></dc:title>
            </cc:Work>
        </rdf:RDF>
    </metadata>
    <defs
            id="defs14"/>
    <sodipodi:namedview
            pagecolor="#ffffff"
            bordercolor="#666666"
            borderopacity="1"
            objecttolerance="10"
            gridtolerance="10"
            guidetolerance="10"
            inkscape:pageopacity="0"
            inkscape:pageshadow="2"
            inkscape:window-width="1848"
            inkscape:window-height="1016"
            id="namedview12"
            showgrid="false"
            inkscape:zoom="16.233993"
            inkscape:cx="-5.3401578"
            inkscape:cy="11.753603"
            inkscape:window-x="72"
            inkscape:window-y="27"
            inkscape:window-maximized="1"
            inkscape:current-layer="svg10"
            inkscape:lockguides="true"/>
    <path
            style="fill:none;stroke:#000000;stroke-width:3.32199526px;stroke-linecap:butt;stroke-linejoin:miter;stroke-opacity:1"
            d="M 22.769487,22.734464 1.2541749,1.4649151"
            id="path814"
            inkscape:connector-curvature="0"/>
    <path
            style="fill:none;stroke:#000000;stroke-width:3.27456379px;stroke-linecap:butt;stroke-linejoin:miter;stroke-opacity:1"
            d="M 1.5509646,22.725932 22.472697,1.4734471"
            id="path814-3"
            inkscape:connector-curvature="0"/>
</svg>
