<?xml version="1.0" encoding="UTF-8" standalone="no"?>
<svg
        xmlns:dc="http://purl.org/dc/elements/1.1/"
        xmlns:cc="http://creativecommons.org/ns#"
        xmlns:rdf="http://www.w3.org/1999/02/22-rdf-syntax-ns#"
        xmlns="http://www.w3.org/2000/svg"
        xmlns:sodipodi="http://sodipodi.sourceforge.net/DTD/sodipodi-0.dtd"
        xmlns:inkscape="http://www.inkscape.org/namespaces/inkscape"
        height="24"
        viewBox="0 0 24 24"
        width="24"
        version="1.1"
        id="svg10"
        sodipodi:docname="search.svg"
        inkscape:version="0.92.5 (2060ec1f9f, 2020-04-08)">
    <metadata
            id="metadata16">
        <rdf:RDF>
            <cc:Work
                    rdf:about="">
                <dc:format>image/svg+xml</dc:format>
                <dc:type
                        rdf:resource="http://purl.org/dc/dcmitype/StillImage"/>
                <dc:title/>
            </cc:Work>
        </rdf:RDF>
    </metadata>
    <defs
            id="defs14"/>
    <sodipodi:namedview
            pagecolor="#ffffff"
            bordercolor="#666666"
            borderopacity="1"
            objecttolerance="10"
            gridtolerance="10"
            guidetolerance="10"
            inkscape:pageopacity="0"
            inkscape:pageshadow="2"
            inkscape:window-width="1848"
            inkscape:window-height="1016"
            id="namedview12"
            showgrid="false"
            inkscape:zoom="16.233993"
            inkscape:cx="12"
            inkscape:cy="12"
            inkscape:window-x="72"
            inkscape:window-y="27"
            inkscape:window-maximized="1"
            inkscape:current-layer="svg10"
            inkscape:lockguides="true"/>
    <path
            inkscape:connector-curvature="0"
            d="m 17.186256,15.000567 h -1.082148 l -0.383545,-0.37175 c 1.34241,-1.569609 2.150595,-3.607347 2.150595,-5.8240759 0,-4.9428916 -3.986135,-8.94952527 -8.9037406,-8.94952527 -4.9176048,0 -8.90374056,4.00663367 -8.90374056,8.94952527 0,4.9428929 3.98613576,8.9495269 8.90374056,8.9495269 2.2053876,0 4.2327026,-0.812343 5.7942806,-2.161656 l 0.369848,0.385518 v 1.087711 l 6.84903,6.870482 2.041011,-2.051506 z m -8.2188386,0 c -3.4108173,0 -6.1641283,-2.76747 -6.1641283,-6.1958259 0,-3.4283564 2.753311,-6.1958251 6.1641283,-6.1958251 3.4108176,0 6.1641286,2.7674687 6.1641286,6.1958251 0,3.4283559 -2.753311,6.1958259 -6.1641286,6.1958259 z"
            id="path4"
            style="fill:rgba(49, 185, 141, 1);fill-opacity:1;stroke-width:5;stroke-miterlimit:4;stroke-dasharray:none"/>
</svg>
